51f18193
00000113
00208f33
00000e93
00200193
4ddf1663
00100093
00100113
00208f33
00200e93
00300193
4bdf1a63
00300093
00700113
00208f33
00a00e93
00400193
49df1e63
00000093
ffff8137
00208f33
ffff8eb7
00500193
49df1263
800000b7
00000113
00208f33
80000eb7
00600193
47df1663
800000b7
ffff8137
00208f33
7fff8eb7
00700193
45df1a63
00000093
00008137
fff10113
00208f33
00008eb7
fffe8e93
00800193
43df1a63
800000b7
fff08093
00000113
00208f33
80000eb7
fffe8e93
00900193
41df1a63
800000b7
fff08093
00008137
fff10113
00208f33
80008eb7
ffee8e93
00a00193
3fdf1863
800000b7
00008137
fff10113
00208f33
80008eb7
fffe8e93
00b00193
3ddf1863
800000b7
fff08093
ffff8137
00208f33
7fff8eb7
fffe8e93
00c00193
3bdf1863
00000093
fff00113
00208f33
fff00e93
00d00193
39df1c63
fff00093
00100113
00208f33
00000e93
00e00193
39df1063
fff00093
fff00113
00208f33
ffe00e93
00f00193
37df1463
00100093
80000137
fff10113
00208f33
80000eb7
01000193
35df1663
00d00093
00b00113
002080b3
01800e93
01100193
33d09a63
00e00093
00b00113
00208133
01900e93
01200193
31d11e63
00d00093
001080b3
01a00e93
01300193
31d09463
00000213
00d00093
00b00113
00208f33
000f0313
00120213
00200293
fe5214e3
01800e93
01400193
2dd31e63
00000213
00e00093
00b00113
00208f33
00000013
000f0313
00120213
00200293
fe5212e3
01900e93
01500193
2bd31663
00000213
00f00093
00b00113
00208f33
00000013
00000013
000f0313
00120213
00200293
fe5210e3
01a00e93
01600193
27d31c63
00000213
00d00093
00b00113
00208f33
00120213
00200293
fe5216e3
01800e93
01700193
25df1863
00000213
00e00093
00b00113
00000013
00208f33
00120213
00200293
fe5214e3
01900e93
01800193
23df1263
00000213
00f00093
00b00113
00000013
00000013
00208f33
00120213
00200293
fe5212e3
01a00e93
01900193
1fdf1a63
00000213
00d00093
00000013
00b00113
00208f33
00120213
00200293
fe5214e3
01800e93
01a00193
1ddf1463
00000213
00e00093
00000013
00b00113
00000013
00208f33
00120213
00200293
fe5212e3
01900e93
01b00193
19df1c63
00000213
00f00093
00000013
00000013
00b00113
00208f33
00120213
00200293
fe5212e3
01a00e93
01c00193
17df1463
00000213
00b00113
00d00093
00208f33
00120213
00200293
fe5216e3
01800e93
01d00193
15df1063
00000213
00b00113
00e00093
00000013
00208f33
00120213
00200293
fe5214e3
01900e93
01e00193
11df1a63
00000213
00b00113
00f00093
00000013
00000013
00208f33
00120213
00200293
fe5212e3
01a00e93
01f00193
0fdf1263
00000213
00b00113
00000013
00d00093
00208f33
00120213
00200293
fe5214e3
01800e93
02000193
0bdf1c63
00000213
00b00113
00000013
00e00093
00000013
00208f33
00120213
00200293
fe5212e3
01900e93
02100193
09df1463
00000213
00b00113
00000013
00000013
00f00093
00208f33
00120213
00200293
fe5212e3
01a00e93
02200193
05df1c63
00f00093
00100133
00f00e93
02300193
05d11263
02000093
00008133
02000e93
02400193
03d11863
000000b3
00000e93
02500193
03d09063
01000093
01e00113
00208033
00000e93
02600193
01d01463
00301c63
0ff0000f
00018063
00119193
0011e193
00000073
0ff0000f
00100193
00000073
c0001073
00000000
00000000
00000000
00000000
00000000
00000000
00000000
00000000
00000000
00000000
00000000
00000000
00000000
00000000
00000000
00000000
00000000
00000000
00000000
00000000
00000000
00000000
00000000
00000000
00000000
00000000
00000000
00000000
00000000
00000000
00000000
00000000
00000000
00000000
00000000
00000000
